<?xml version="1.0" encoding="UTF-8"?>
<!-- Generator: Adobe Illustrator 15.0.0, SVG Export Plug-In . SVG Version: 6.00 Build 0)  -->
<!DOCTYPE svg PUBLIC "-//W3C//DTD SVG 1.1//EN" "http://www.w3.org/Graphics/SVG/1.1/DTD/svg11.dtd">
<svg version="1.1" id="Layer_1" xmlns="http://www.w3.org/2000/svg" xmlns:xlink="http://www.w3.org/1999/xlink" x="0px" y="0px" width="566.743px" height="69.615px" viewBox="0 0 566.743 69.615" enable-background="new 0 0 566.743 69.615" xml:space="preserve">
<g>
	<polygon fill="#FFFFFF" points="0,69.17450201511383 17.44499969482422,54.014498353004456 25.062000274658203,56.463499665260315 41.887001037597656,37.924498200416565 45.96099853515625,42.64649832248688 42.861000061035156,56.11249792575836 63.672000885009766,19.035502076148987 74.56500244140625,31.803499817848206 78.99299621582031,29.966501832008362 99.6259994506836,65.0325037240982 103.43499755859375,55.882498383522034 114.3270034790039,69.17450201511383 103.69999694824219,48.71150076389313 99.44999694824219,54.04550039768219 82.2699966430664,18.366501450538635 75.36199951171875,23.439501404762268 61.01599884033203,0.44050073623657227 50.03499984741211,29.734501481056213 44.45600128173828,24.051500916481018 24.79599952697754,47.83650076389313 16.382999420166016,42.502501130104065 0,69.17450201511383 " clip-rule="evenodd" fill-rule="evenodd"/>
	<path d="m150.516006,44.743c2.831009,0 4.931,-0.659 6.298996,-1.978996c1.369003,-1.32 2.052002,-3.875999 2.052002,-7.667999c0,-2.592003 -0.299988,-4.560001 -0.898987,-5.904003c-0.601013,-1.342999 -1.489014,-2.231998 -2.664001,-2.664c-1.177002,-0.432001 -2.77301,-0.647001 -4.78801,-0.647001l-2.591995,0l0,18.862l2.591995,0l0,0zm-20.017014,-33.119998l22.031998,0c16.031006,0 24.048004,7.825 24.048004,23.473002c0,7.823994 -2.076004,13.596996 -6.228012,17.314995c-4.151993,3.721001 -10.091995,5.580002 -17.819992,5.580002l-22.031998,0l0,-46.367999l0,0z" fill="#FFFFFF"/>
	<polygon points="180.17799377441406,11.62300193309784 217.25799560546875,11.62300193309784 217.25799560546875,24.151001930236816 197.6020050048828,24.151001930236816 197.6020050048828,28.32700252532959 214.52200317382812,28.32700252532959 214.52200317382812,41.28700351715088 197.6020050048828,41.28700351715088 197.6020050048828,45.46400165557861 217.25799560546875,45.46400165557861 217.25799560546875,57.99100208282471 180.17799377441406,57.99100208282471 180.17799377441406,11.62300193309784 " fill="#FFFFFF"/>
	<path d="m226.690002,57.847c-3.024002,-0.576 -5.544006,-1.368 -7.559998,-2.375999l0,-13.031998c2.304001,1.103996 4.860001,2.015995 7.667999,2.735996c2.807999,0.720001 5.315994,1.080002 7.524002,1.080002c1.439987,0 2.567993,-0.181 3.383987,-0.540001c0.815002,-0.360001 1.223999,-0.875999 1.223999,-1.549c0,-0.575001 -0.335999,-1.043999 -1.007996,-1.402996c-0.673004,-0.360001 -1.919998,-0.852001 -3.744003,-1.477001c-2.112991,-0.720001 -3.311996,-1.126999 -3.599991,-1.223999c-3.072006,-1.152 -5.447998,-2.352001 -7.128006,-3.600002c-1.681,-1.247997 -2.891998,-2.736 -3.636002,-4.465c-0.744995,-1.728001 -1.115997,-3.934998 -1.115997,-6.624001c0,-4.896 1.693008,-8.530998 5.076004,-10.907c3.384003,-2.375 8.483994,-3.563 15.300003,-3.563c2.256012,0 4.871002,0.229 7.848007,0.685c2.974991,0.455999 5.446991,0.971999 7.416,1.547999l0,13.104c-4.561005,-1.872 -8.664001,-2.807999 -12.312012,-2.807999c-3.697006,0 -5.544006,0.600998 -5.544006,1.799999c0,0.48 0.335007,0.875999 1.008011,1.188c0.671997,0.313 2.015991,0.756001 4.031998,1.331001l1.871994,0.505001c3.695999,1.007999 6.516006,2.243999 8.460007,3.708c1.944,1.463997 3.263992,3.143997 3.959991,5.039997c0.696014,1.896 1.044006,4.260002 1.044006,7.091999c0,4.512001 -1.764008,8.076 -5.292007,10.690998c-3.528,2.617001 -8.651993,3.924999 -15.371979,3.924999c-3.312012,0 -6.480011,-0.287998 -9.504013,-0.864998l0,0z" fill="#FFFFFF"/>
	<path d="m264.238007,52.662998c-4.678986,-4.030998 -7.018982,-9.981995 -7.018982,-17.854996c0,-7.871998 2.314972,-13.824001 6.947998,-17.856001c4.630981,-4.032 11.506989,-6.049 20.627991,-6.049c2.830994,0 5.388,0.205 7.667999,0.612c2.278992,0.408 4.596008,1.044 6.947998,1.908l0,15.191c-4.368988,-2.016001 -8.855988,-3.023001 -13.464996,-3.023001c-3.598999,0 -6.324005,0.696001 -8.171997,2.087999c-1.847015,1.393002 -2.770996,3.769001 -2.770996,7.128002c0,3.312 0.946991,5.676998 2.843994,7.091999c1.894989,1.415997 4.643005,2.123997 8.243988,2.123997c4.606995,0 9.095001,-1.007999 13.46402,-3.023994l0,15.191994c-2.354004,0.864002 -4.669006,1.501003 -6.949005,1.908001c-2.279999,0.407001 -4.835999,0.612 -7.667999,0.612c-9.120026,0.000999 -16.019012,-2.015999 -20.700012,-6.048l0,0z" fill="#FFFFFF"/>
	<polygon points="303.15301513671875,11.62300193309784 340.2330017089844,11.62300193309784 340.2330017089844,24.151001930236816 320.5780029296875,24.151001930236816 320.5780029296875,28.32700252532959 337.49798583984375,28.32700252532959 337.49798583984375,41.28700351715088 320.5780029296875,41.28700351715088 320.5780029296875,45.46400165557861 340.2330017089844,45.46400165557861 340.2330017089844,57.99100208282471 303.15301513671875,57.99100208282471 303.15301513671875,11.62300193309784 " fill="#FFFFFF"/>
	<polygon points="343.1130065917969,11.62300193309784 357.72900390625,11.62300193309784 370.6889953613281,29.767003059387207 370.6889953613281,11.62300193309784 388.1130065917969,11.62300193309784 388.1130065917969,57.99100208282471 373.42498779296875,57.99100208282471 360.5379943847656,39.84700298309326 360.5379943847656,57.99100208282471 343.1130065917969,57.99100208282471 343.1130065917969,11.62300193309784 " fill="#FFFFFF"/>
	<path d="m413.167999,44.743c2.830994,0 4.932007,-0.659 6.299988,-1.978996s2.052002,-3.875999 2.052002,-7.667999c0,-2.592003 -0.298981,-4.560001 -0.898987,-5.904003c-0.601013,-1.342999 -1.488007,-2.231998 -2.664001,-2.664c-1.177002,-0.432001 -2.772003,-0.647001 -4.787994,-0.647001l-2.59201,0l0,18.862l2.591003,0l0,0zm-20.015991,-33.119998l22.032013,0c16.030975,0 24.048004,7.825 24.048004,23.473002c0,7.823994 -2.076019,13.596996 -6.228027,17.314995c-4.151978,3.721001 -10.092987,5.580002 -17.819977,5.580002l-22.032013,0l0,-46.367999l0,0z" fill="#FFFFFF"/>
	<polygon points="442.8320007324219,11.62300193309784 479.9119873046875,11.62300193309784 479.9119873046875,24.151001930236816 460.2560119628906,24.151001930236816 460.2560119628906,28.32700252532959 477.177001953125,28.32700252532959 477.177001953125,41.28700351715088 460.2560119628906,41.28700351715088 460.2560119628906,45.46400165557861 479.9119873046875,45.46400165557861 479.9119873046875,57.99100208282471 442.8320007324219,57.99100208282471 442.8320007324219,11.62300193309784 " fill="#FFFFFF"/>
	<path d="m504.463013,32.575005c2.830994,0 4.247986,-1.199001 4.247986,-3.600002c0,-1.296001 -0.322998,-2.243 -0.972992,-2.844002c-0.647003,-0.599998 -1.643982,-0.899998 -2.987,-0.899998l-4.536011,0l0,7.344002l4.248016,0l0,0zm-21.672028,-20.952003l26.063995,0c5.711975,0 10.067017,1.596999 13.067993,4.787999c2.999023,3.193001 4.5,7.379999 4.5,12.564001c0,2.977001 -0.755981,5.652 -2.268982,8.028c-1.512024,2.375999 -3.492004,4.380001 -5.939026,6.011997c0.911011,0.624001 1.559021,1.416 1.942993,2.375999l5.473999,12.600002l-18.145966,0l-4.536011,-10.296001c-0.23999,-0.576 -0.503998,-0.972 -0.791992,-1.188c-0.287994,-0.216999 -0.696014,-0.324001 -1.223999,-0.324001l-0.720001,0l0,11.808002l-17.425018,0l0,-46.367999l0.002014,0z" fill="#FFFFFF"/>
	<path d="m536.575012,57.847c-3.023987,-0.576 -5.544006,-1.368 -7.559998,-2.375999l0,-13.031998c2.304016,1.103996 4.859009,2.015995 7.666992,2.735996c2.809021,0.720001 5.315979,1.080002 7.523987,1.080002c1.439026,0 2.567017,-0.181 3.38501,-0.540001c0.814026,-0.360001 1.223022,-0.875999 1.223022,-1.549c0,-0.575001 -0.335999,-1.043999 -1.007019,-1.402996c-0.672974,-0.360001 -1.919983,-0.852001 -3.744995,-1.477001c-2.112,-0.720001 -3.312012,-1.126999 -3.599976,-1.223999c-3.071045,-1.152 -5.447021,-2.352001 -7.128052,-3.600002s-2.892944,-2.736 -3.635986,-4.465c-0.744995,-1.728001 -1.115967,-3.934998 -1.115967,-6.624001c0,-4.896 1.691956,-8.530998 5.075989,-10.907s8.484009,-3.563 15.299988,-3.563c2.255981,0 4.870972,0.229 7.848999,0.685c2.974976,0.455999 5.445984,0.971999 7.416016,1.547999l0,13.104c-4.562012,-1.872 -8.665039,-2.807999 -12.312988,-2.807999c-3.697021,0 -5.544006,0.600998 -5.544006,1.799999c0,0.48 0.334961,0.875999 1.007996,1.188c0.671997,0.313 2.016968,0.756001 4.031982,1.331001l1.872009,0.505001c3.695007,1.007999 6.515991,2.243999 8.460022,3.708c1.942993,1.463997 3.263977,3.143997 3.959961,5.039997c0.695007,1.896 1.044006,4.260002 1.044006,7.091999c0,4.512001 -1.765015,8.076 -5.291992,10.690998c-3.528015,2.617001 -8.651978,3.924999 -15.372009,3.924999c-3.312012,0 -6.479004,-0.287998 -9.502991,-0.864998l0,0z" fill="#FFFFFF"/>
</g>
</svg>
